…
``` r
(pisa <- rio::import("https://raw.githubusercontent.com/m-clark/generalized-additive-models/master/data/pisasci2006.csv") %>% 
        tibble())
```

    ## # A tibble: 65 × 11
    ##    Country    Overall Issues Explain Evidence Interest Support Income Health    Edu    HDI
    ##    <chr>        <int>  <int>   <int>    <int>    <int>   <int>  <dbl>  <dbl>  <dbl>  <dbl>
    ##  1 Albania         NA     NA      NA       NA       NA      NA  0.599  0.886  0.716  0.724
    ##  2 Argentina      391    395     386      385      567     506  0.678  0.868  0.786  0.773
    ##  3 Australia      527    535     520      531      465     487  0.826  0.965  0.978  0.92 
    ##  4 Austria        511    505     516      505      507     515  0.835  0.944  0.824  0.866
    ##  5 Azerbaijan     382    353     412      344      612     542  0.566  0.78  NA     NA    
    ##  6 Belgium        510    515     503      516      503     492  0.831  0.935  0.868  0.877
    ##  7 Brazil         390    398     390      378      592     519  0.637  0.818  0.646  0.695
    ##  8 Bulgaria       434    427     444      417      523     527  0.663  0.829  0.778  0.753
    ##  9 Canada         534    532     531      542      469     501  0.84   0.951  0.902  0.897
    ## 10 Chile          438    444     432      440      591     564  0.673  0.923  0.764  0.78 
    ## # ℹ 55 more rows
…
