…
## Data

``` r
# data #-----------
tibble(alcohol)
```

    ## # A tibble: 48 × 7
    ##    id    type   dose cases peryears   logrr     se
    ##    <fct> <fct> <dbl> <int>    <dbl>   <dbl>  <dbl>
    ##  1 atm   ir     0       28   22186.  0      NA    
    ##  2 atm   ir     1.83    38   43031. -0.417   0.251
    ##  3 atm   ir     9.20    43   53089. -0.396   0.246
    ##  4 atm   ir    22.9     32   45348. -0.488   0.263
    ##  5 atm   ir    35.7     16   19791. -0.279   0.321
    ##  6 atm   ir    58.4     27   19920.  0.202   0.286
    ##  7 hpm   ir     0      100  103002.  0      NA    
    ##  8 hpm   ir     2.10    65  106826. -0.416   0.160
    ##  9 hpm   ir     9.5    104  119846. -0.0986  0.143
    ## 10 hpm   ir    18.8     63   58034.  0.0938  0.165
    ## # ℹ 38 more rows
…
    ##            [,1]       [,2]       [,3]        [,4]        [,5]
    ## [1,] 0.02570000 0.01044728 0.01045524 0.010044149 0.010081780
    ## [2,] 0.01044728 0.02037000 0.01046186 0.010050511 0.010088167
    ## [3,] 0.01045524 0.01046186 0.02739000 0.010058173 0.010095857
    ## [4,] 0.01004415 0.01005051 0.01005817 0.034170004 0.009698896
    ## [5,] 0.01008178 0.01008817 0.01009586 0.009698896 0.048279998

``` r
(sub <- tibble(alcohol) %>% filter(!is.na(se)))
```

    ## # A tibble: 40 × 7
    ##    id    type   dose cases peryears   logrr    se
    ##    <fct> <fct> <dbl> <int>    <dbl>   <dbl> <dbl>
    ##  1 atm   ir     1.83    38   43031. -0.417  0.251
    ##  2 atm   ir     9.20    43   53089. -0.396  0.246
    ##  3 atm   ir    22.9     32   45348. -0.488  0.263
    ##  4 atm   ir    35.7     16   19791. -0.279  0.321
    ##  5 atm   ir    58.4     27   19920.  0.202  0.286
    ##  6 hpm   ir     2.10    65  106826. -0.416  0.160
    ##  7 hpm   ir     9.5    104  119846. -0.0986 0.143
    ##  8 hpm   ir    18.8     63   58034.  0.0938 0.165
    ##  9 hpm   ir    36.7     46   33081.  0.205  0.185
    ## 10 hpm   ir    59.4     30   18455.  0.343  0.220
    ## # ℹ 30 more rows
…
