…
## Model: factor-smooths interaction

``` r
# factor-smooth #----------------
data("mpg", package = "gamair")

(mpg <- mpg %>% 
                tibble() %>% 
                mutate(fuel = as.factor(fuel)))
```

    ## # A tibble: 205 × 26
    ##    symbol  loss make    fuel  aspir doors style drive eng.loc    wb length width height weight eng.type cylinders eng.cc fuel.sys
    ##     <int> <int> <fct>   <fct> <fct> <fct> <fct> <fct> <fct>   <dbl>  <dbl> <dbl>  <dbl>  <int> <fct>    <fct>      <int> <fct>   
    ##  1      3    NA alfa-r… gas   std   two   conv… rwd   front    88.6   169.  64.1   48.8   2548 dohc     four         130 mpfi    
    ##  2      3    NA alfa-r… gas   std   two   conv… rwd   front    88.6   169.  64.1   48.8   2548 dohc     four         130 mpfi    
    ##  3      1    NA alfa-r… gas   std   two   hatc… rwd   front    94.5   171.  65.5   52.4   2823 ohcv     six          152 mpfi    
    ##  4      2   164 audi    gas   std   four  sedan fwd   front    99.8   177.  66.2   54.3   2337 ohc      four         109 mpfi    
    ##  5      2   164 audi    gas   std   four  sedan 4wd   front    99.4   177.  66.4   54.3   2824 ohc      five         136 mpfi    
    ##  6      2    NA audi    gas   std   two   sedan fwd   front    99.8   177.  66.3   53.1   2507 ohc      five         136 mpfi    
    ##  7      1   158 audi    gas   std   four  sedan fwd   front   106.    193.  71.4   55.7   2844 ohc      five         136 mpfi    
    ##  8      1    NA audi    gas   std   four  wagon fwd   front   106.    193.  71.4   55.7   2954 ohc      five         136 mpfi    
    ##  9      1   158 audi    gas   turbo four  sedan fwd   front   106.    193.  71.4   55.9   3086 ohc      five         131 mpfi    
    ## 10      0    NA audi    gas   turbo two   hatc… 4wd   front    99.5   178.  67.9   52     3053 ohc      five         131 mpfi    
    ## # ℹ 195 more rows
    ## # ℹ 8 more variables: bore <dbl>, stroke <dbl>, comp.ratio <dbl>, hp <int>, rpm <int>, city.mpg <int>, hw.mpg <int>, price <int>
…
