…
``` r
## drug #----------------------------
```

- `id`: subject ID.  
- `out`: the outcome level measured at day 28.  
- `sex`: the sex of the subject.  
- `day1.7`, `day8.14`, `day15.21`, `day22.28`: daily dose for the 1st,
  2nd, 3rd, 4th week.

``` r
tibble(drug)
```

    ## # A tibble: 200 × 7
    ##       id   out sex   day1.7 day8.14 day15.21 day22.28
    ##    <int> <dbl> <fct>  <dbl>   <dbl>    <dbl>    <dbl>
    ##  1     1    46 M          0       0       40       37
    ##  2     2    50 F          0      47       55        0
    ##  3     3     7 F         56      22        0        0
    ##  4     4    70 M         91       0        0       87
    ##  5     5    -3 F          0      42       28        0
    ##  6     6    44 F          0       0       45       77
    ##  7     7    25 M         83       0       55        0
    ##  8     8    25 M          0       0       61       14
    ##  9     9    48 M          0      15       98        0
    ## 10    10    44 M          0      37        0       40
    ## # ℹ 190 more rows
…
- `id`: subject ID.  
- `case`: indicator for case (1) or control (0).  
- `age`: age of each subject.  
- `riskset`: risk set id.  
- `exp15`, `exp20`, …, `exp60`: yearly exposure in the age period
  (15-19), (20-24), …, (60-64) year.

``` r
tibble(nested)
```

    ## # A tibble: 600 × 14
    ##       id  case   age riskset exp15 exp20 exp25 exp30 exp35 exp40 exp45 exp50 exp55 exp60
    ##    <dbl> <dbl> <dbl>   <dbl> <dbl> <dbl> <dbl> <dbl> <dbl> <dbl> <dbl> <dbl> <dbl> <dbl>
    ##  1     1     1    81     240     5    84    34    45   128    81    14    52    11    16
    ##  2     2     1    69     129    11     8    25     6     8    12    19    60    16    10
    ##  3     3     1    73     180    14    15     7    69    10   143    18    19    44    23
    ##  4     4     0    52      19    10    16     5    30    24    33    14   122    NA    NA
    ##  5     4     0    66      96    10    16     5    30    24    33    14   122     2    11
    ##  6     4     1    72     168    10    16     5    30    24    33    14   122     2    11
    ##  7     5     0    70     139    18    42     6    22    22    10     5    16    68    18
    ##  8     5     0    80     235    18    42     6    22    22    10     5    16    68    18
    ##  9     5     0    83     252    18    42     6    22    22    10     5    16    68    18
    ## 10     5     0    99     298    18    42     6    22    22    10     5    16    68    18
    ## # ℹ 590 more rows

``` r
nested %>% nest(.by = id)
```

    ## # A tibble: 301 × 2
    ##       id data             
    ##    <dbl> <list>           
    ##  1     1 <tibble [1 × 13]>
    ##  2     2 <tibble [1 × 13]>
    ##  3     3 <tibble [1 × 13]>
    ##  4     4 <tibble [3 × 13]>
    ##  5     5 <tibble [6 × 13]>
    ##  6     6 <tibble [2 × 13]>
    ##  7     7 <tibble [1 × 13]>
    ##  8     8 <tibble [3 × 13]>
    ##  9     9 <tibble [1 × 13]>
    ## 10    10 <tibble [1 × 13]>
    ## # ℹ 291 more rows
…
### Reference code

``` r
### reference code #--------------
rep(7:4, each = 7)
```

    ##  [1] 7 7 7 7 7 7 7 6 6 6 6 6 6 6 5 5 5 5 5 5 5 4 4 4 4 4 4 4

``` r
drug[, rep(7:4, each = 7)] %>% tibble()
```

    ## # A tibble: 200 × 28
    ##    day22.28 day22.28.1 day22.28.2 day22.28.3 day22.28.4 day22.28.5 day22.28.6 day15.21 day15.21.1
    ##       <dbl>      <dbl>      <dbl>      <dbl>      <dbl>      <dbl>      <dbl>    <dbl>      <dbl>
    ##  1       37         37         37         37         37         37         37       40         40
    ##  2        0          0          0          0          0          0          0       55         55
    ##  3        0          0          0          0          0          0          0        0          0
    ##  4       87         87         87         87         87         87         87        0          0
    ##  5        0          0          0          0          0          0          0       28         28
    ##  6       77         77         77         77         77         77         77       45         45
    ##  7        0          0          0          0          0          0          0       55         55
    ##  8       14         14         14         14         14         14         14       61         61
    ##  9        0          0          0          0          0          0          0       98         98
    ## 10       40         40         40         40         40         40         40        0          0
    ## # ℹ 190 more rows
    ## # ℹ 19 more variables: day15.21.2 <dbl>, day15.21.3 <dbl>, day15.21.4 <dbl>, day15.21.5 <dbl>,
    ## #   day15.21.6 <dbl>, day8.14 <dbl>, day8.14.1 <dbl>, day8.14.2 <dbl>, day8.14.3 <dbl>, day8.14.4 <dbl>,
    ## #   day8.14.5 <dbl>, day8.14.6 <dbl>, day1.7 <dbl>, day1.7.1 <dbl>, day1.7.2 <dbl>, day1.7.3 <dbl>,
    ## #   day1.7.4 <dbl>, day1.7.5 <dbl>, day1.7.6 <dbl>
…
(week4 <- map_dfc(1:7, ~ drug$day22.28) %>% 
        rename_with(~paste0("lag", 0:6), everything()))
```

    ## New names:
    ## • `` -> `...1`
    ## • `` -> `...2`
    ## • `` -> `...3`
    ## • `` -> `...4`
    ## • `` -> `...5`
    ## • `` -> `...6`
    ## • `` -> `...7`

    ## # A tibble: 200 × 7
    ##     lag0  lag1  lag2  lag3  lag4  lag5  lag6
    ##    <dbl> <dbl> <dbl> <dbl> <dbl> <dbl> <dbl>
    ##  1    37    37    37    37    37    37    37
    ##  2     0     0     0     0     0     0     0
    ##  3     0     0     0     0     0     0     0
    ##  4    87    87    87    87    87    87    87
    ##  5     0     0     0     0     0     0     0
    ##  6    77    77    77    77    77    77    77
    ##  7     0     0     0     0     0     0     0
    ##  8    14    14    14    14    14    14    14
    ##  9     0     0     0     0     0     0     0
    ## 10    40    40    40    40    40    40    40
    ## # ℹ 190 more rows
``` r
(week3 <- map_dfc(1:7, ~ drug$day15.21) %>% 
                rename_with(~paste0("lag", 7:13), everything()))
```

    ## New names:
    ## • `` -> `...1`
    ## • `` -> `...2`
    ## • `` -> `...3`
    ## • `` -> `...4`
    ## • `` -> `...5`
    ## • `` -> `...6`
    ## • `` -> `...7`

    ## # A tibble: 200 × 7
    ##     lag7  lag8  lag9 lag10 lag11 lag12 lag13
    ##    <dbl> <dbl> <dbl> <dbl> <dbl> <dbl> <dbl>
    ##  1    40    40    40    40    40    40    40
    ##  2    55    55    55    55    55    55    55
    ##  3     0     0     0     0     0     0     0
    ##  4     0     0     0     0     0     0     0
    ##  5    28    28    28    28    28    28    28
    ##  6    45    45    45    45    45    45    45
    ##  7    55    55    55    55    55    55    55
    ##  8    61    61    61    61    61    61    61
    ##  9    98    98    98    98    98    98    98
    ## 10     0     0     0     0     0     0     0
    ## # ℹ 190 more rows
``` r
(week2 <- map_dfc(1:7, ~ drug$day8.14) %>% 
                rename_with(~paste0("lag", 14:20), everything()))
```

    ## New names:
    ## • `` -> `...1`
    ## • `` -> `...2`
    ## • `` -> `...3`
    ## • `` -> `...4`
    ## • `` -> `...5`
    ## • `` -> `...6`
    ## • `` -> `...7`

    ## # A tibble: 200 × 7
    ##    lag14 lag15 lag16 lag17 lag18 lag19 lag20
    ##    <dbl> <dbl> <dbl> <dbl> <dbl> <dbl> <dbl>
    ##  1     0     0     0     0     0     0     0
    ##  2    47    47    47    47    47    47    47
    ##  3    22    22    22    22    22    22    22
    ##  4     0     0     0     0     0     0     0
    ##  5    42    42    42    42    42    42    42
    ##  6     0     0     0     0     0     0     0
    ##  7     0     0     0     0     0     0     0
    ##  8     0     0     0     0     0     0     0
    ##  9    15    15    15    15    15    15    15
    ## 10    37    37    37    37    37    37    37
    ## # ℹ 190 more rows
``` r
(week1 <- map_dfc(1:7, ~ drug$day1.7) %>% 
                rename_with(~paste0("lag", 21:27), everything()))
```

    ## New names:
    ## • `` -> `...1`
    ## • `` -> `...2`
    ## • `` -> `...3`
    ## • `` -> `...4`
    ## • `` -> `...5`
    ## • `` -> `...6`
    ## • `` -> `...7`

    ## # A tibble: 200 × 7
    ##    lag21 lag22 lag23 lag24 lag25 lag26 lag27
    ##    <dbl> <dbl> <dbl> <dbl> <dbl> <dbl> <dbl>
    ##  1     0     0     0     0     0     0     0
    ##  2     0     0     0     0     0     0     0
    ##  3    56    56    56    56    56    56    56
    ##  4    91    91    91    91    91    91    91
    ##  5     0     0     0     0     0     0     0
    ##  6     0     0     0     0     0     0     0
    ##  7    83    83    83    83    83    83    83
    ##  8     0     0     0     0     0     0     0
    ##  9     0     0     0     0     0     0     0
    ## 10     0     0     0     0     0     0     0
    ## # ℹ 190 more rows
…
## GAM using `mgcv`

``` r
## mgcv::gam #-----------------
# data
dat <- gamSim(1, n = 200, dist = "poisson", scale = .1)
```

    ## Gu & Wahba 4 term additive model

``` r
tibble(dat)
```

    ## # A tibble: 200 × 10
    ##        y     x0     x1    x2    x3     f    f0    f1         f2    f3
    ##    <int>  <dbl>  <dbl> <dbl> <dbl> <dbl> <dbl> <dbl>      <dbl> <dbl>
    ##  1     1 0.0923 0.539  0.462 0.250 0.651 0.572  2.94 3.00           0
    ##  2     0 0.838  0.877  0.854 0.351 0.710 0.975  5.78 0.346          0
    ##  3     2 0.236  0.584  0.940 0.596 0.457 1.35   3.21 0.00488        0
    ##  4     3 0.0224 0.644  0.124 0.601 0.884 0.141  3.63 5.07           0
    ##  5     3 0.648  0.0249 0.202 0.472 1.15  1.79   1.05 8.64           0
    ##  6     0 0.759  0.719  0.982 0.688 0.559 1.37   4.21 0.00000597     0
    ##  7     2 0.410  0.215  0.212 0.686 1.23  1.92   1.54 8.80           0
    ##  8     2 0.716  0.539  0.951 0.601 0.450 1.56   2.94 0.00165        0
    ##  9     1 0.797  0.714  0.680 0.807 0.849 1.19   4.17 3.12           0
    ## 10     4 0.797  0.455  0.474 0.945 0.656 1.19   2.48 2.88           0
    ## # ℹ 190 more rows
…
