…
## Data

``` r
# data #-----------
chicagoNMMAPS %>% tibble()
```

    ## # A tibble: 5,114 × 14
    ##    date        time  year month   doy dow       death   cvd  resp   temp  dptp  rhum  pm10    o3
    ##    <date>     <int> <dbl> <dbl> <int> <fct>     <int> <int> <int>  <dbl> <dbl> <dbl> <dbl> <dbl>
    ##  1 1987-01-01     1  1987     1     1 Thursday    130    65    13 -0.278  31.5  95.5  27.0  4.38
    ##  2 1987-01-02     2  1987     1     2 Friday      150    73    14  0.556  29.9  88.2  NA    4.93
    ##  3 1987-01-03     3  1987     1     3 Saturday    101    43    11  0.556  27.4  89.5  32.8  3.75
    ##  4 1987-01-04     4  1987     1     4 Sunday      135    72     7 -1.67   28.6  84.5  40.0  4.29
    ##  5 1987-01-05     5  1987     1     5 Monday      126    64    12  0      28.9  74.5  NA    4.75
    ##  6 1987-01-06     6  1987     1     6 Tuesday     130    63    12  4.44   35.1  77.4  41.0  6.33
    ##  7 1987-01-07     7  1987     1     7 Wednesday   129    72    12  1.39   26.8  74.5  34.0  8.59
    ##  8 1987-01-08     8  1987     1     8 Thursday    109    51    13 -1.67   22    77.9  29.0 11.8 
    ##  9 1987-01-09     9  1987     1     9 Friday      125    62     7 -3.06   29    95.1  32.3  3.88
    ## 10 1987-01-10    10  1987     1    10 Saturday    153    90    11  0.278  27.8  81.9  NA    5.39
    ## # ℹ 5,104 more rows
…
Data are restricted to a specific season:  
- not represent a single continuous series.  
- be composed by multiple equally-spaced and ordered series of multiple
seasons in different years.

``` r
(chicagoNMMAPSseas <- chicagoNMMAPS %>% 
        filter(month %in% 6:9) %>% 
        tibble())
```

    ## # A tibble: 1,708 × 14
    ##    date        time  year month   doy dow       death   cvd  resp  temp  dptp  rhum  pm10    o3
    ##    <date>     <int> <dbl> <dbl> <int> <fct>     <int> <int> <int> <dbl> <dbl> <dbl> <dbl> <dbl>
    ##  1 1987-06-01   152  1987     6   152 Monday      112    60     5  23.6  68.5  71.9 23.0   34.9
    ##  2 1987-06-02   153  1987     6   153 Tuesday     111    57     7  22.2  64.8  95.2 31.3   19.0
    ##  3 1987-06-03   154  1987     6   154 Wednesday   120    59     9  20.6  47.2  47.1 35.0   23.6
    ##  4 1987-06-04   155  1987     6   155 Thursday    103    50    14  17.2  45    49.1 38.0   21.1
    ##  5 1987-06-05   156  1987     6   156 Friday       98    43     8  21.1  54.9  61.6 54.0   33.2
    ##  6 1987-06-06   157  1987     6   157 Saturday    101    46     8  21.7  54.6  48.5 50.0   43.9
    ##  7 1987-06-07   158  1987     6   158 Sunday      102    45     8  25.3  58.1  45.8 39.0   51.0
    ##  8 1987-06-08   159  1987     6   159 Monday      143    74     8  23.6  60.2  76.8 47.4   49.5
    ##  9 1987-06-09   160  1987     6   160 Tuesday      88    30     7  14.2  41.1  56.5  7.96  30.3
    ## 10 1987-06-10   161  1987     6   161 Wednesday   106    57     3  16.1  51    55.1 43.0   29.3
    ## # ℹ 1,698 more rows
…
